{
    "KPlugin": {
        "Authors": [
            {
                "Name": "Tobias Fella",
                "Name[ar]": "توبياس فلة",
                "Name[ta]": "டோபியாஸ் ஃபெல்லா",
                "Name[x-test]": "xxTobias Fellaxx"
            }
        ],
        "Category": "Utilities",
        "Description": "Share via NeoChat",
        "Description[ar]": "شارك بواسطة نيوتشات",
        "Description[ca@valencia]": "Compartix a través de NeoChat",
        "Description[ca]": "Comparteix a través del NeoChat",
        "Description[de]": "Über NeoChat teilen",
        "Description[eo]": "Kundividi per NeoChat",
        "Description[es]": "Compartir mediante NeoChat",
        "Description[eu]": "Partekatu NeoChat bidez",
        "Description[fi]": "Jaa NeoChatillä",
        "Description[fr]": "Partager grâce à NeoChat",
        "Description[gl]": "Compartir por NeoChat",
        "Description[hu]": "Megosztás NeoChatben",
        "Description[ia]": "Comparti via NeoChat",
        "Description[it]": "Condividi tramite NeoChat",
        "Description[ka]": "გააზიარეთ NeoChat-ით",
        "Description[lv]": "Kopīgot ar „NeoChat“",
        "Description[nl]": "Delen via NeoChat",
        "Description[nn]": "Del via NeoChat",
        "Description[pl]": "Udostępnij przez NeoChat",
        "Description[ru]": "Опубликовать в NeoChat",
        "Description[sl]": "Deli prek NeoChat",
        "Description[sv]": "Dela via NeoChat",
        "Description[ta]": "நியோச்சாட் மூலம் பகிர்",
        "Description[tr]": "NeoChat ile Paylaş",
        "Description[uk]": "Оприлюднити за допомогою NeoChat",
        "Description[x-test]": "xxShare via NeoChatxx",
        "Description[zh_TW]": "透過 NeoChat 分享",
        "Icon": "org.kde.neochat",
        "License": "GPL",
        "Name": "NeoChat",
        "Name[ar]": "نيوتشات",
        "Name[ia]": "Neochat",
        "Name[ta]": "நியோச்சாட்",
        "Name[x-test]": "xxNeoChatxx",
        "X-Purpose-ActionDisplay": "NeoChat"
    },
    "X-Purpose-PluginTypes": [
        "ShareUrl"
    ]
}
